{
  "body": {
    "bound": {
      "height": 804,
      "left": 0,
      "top": 0,
      "width": 1600
    },
    "computed": {
      "align-content": "start",
      "align-items": "start",
      "align-self": "start",
      "alignment-baseline": "auto",
      "alt": "''",
      "animation-delay": "0s",
      "animation-direction": "normal",
      "animation-duration": "0s",
      "animation-fill-mode": "none",
      "animation-iteration-count": "1",
      "animation-name": "none",
      "animation-play-state": "running",
      "animation-timing-function": "ease",
      "background-attachment": "scroll",
      "background-blend-mode": "normal",
      "background-clip": "border-box",
      "background-color": "rgb(255, 255, 255)",
      "background-image": "none",
      "background-origin": "padding-box",
      "background-position": "0% 0%",
      "background-repeat": "repeat",
      "background-size": "auto",
      "baseline-shift": "baseline",
      "border-bottom-color": "rgb(0, 0, 0)",
      "border-bottom-left-radius": "0px",
      "border-bottom-right-radius": "0px",
      "border-bottom-style": "none",
      "border-bottom-width": "0px",
      "border-collapse": "separate",
      "border-image-outset": "0px",
      "border-image-repeat": "stretch",
      "border-image-slice": "100%",
      "border-image-source": "none",
      "border-image-width": "1",
      "border-left-color": "rgb(0, 0, 0)",
      "border-left-style": "none",
      "border-left-width": "0px",
      "border-right-color": "rgb(0, 0, 0)",
      "border-right-style": "none",
      "border-right-width": "0px",
      "border-top-color": "rgb(0, 0, 0)",
      "border-top-left-radius": "0px",
      "border-top-right-radius": "0px",
      "border-top-style": "none",
      "border-top-width": "0px",
      "bottom": "auto",
      "box-shadow": "none",
      "box-sizing": "border-box",
      "buffered-rendering": "auto",
      "caption-side": "top",
      "clear": "none",
      "clip": "auto",
      "clip-path": "none",
      "clip-rule": "nonzero",
      "color": "rgb(0, 0, 0)",
      "color-interpolation": "srgb",
      "color-interpolation-filters": "linearrgb",
      "color-rendering": "auto",
      "column-count": "auto",
      "column-fill": "balance",
      "column-gap": "normal",
      "column-progression": "normal",
      "column-rule-color": "rgb(0, 0, 0)",
      "column-rule-style": "none",
      "column-rule-width": "0px",
      "column-span": "none",
      "column-width": "auto",
      "content": "",
      "cursor": "auto",
      "cx": "0px",
      "cy": "0px",
      "direction": "ltr",
      "display": "block",
      "dominant-baseline": "auto",
      "empty-cells": "show",
      "fill": "rgb(0, 0, 0)",
      "fill-opacity": "1",
      "fill-rule": "nonzero",
      "filter": "none",
      "flex-basis": "auto",
      "flex-direction": "row",
      "flex-grow": "0",
      "flex-shrink": "1",
      "flex-wrap": "nowrap",
      "float": "none",
      "flood-color": "rgb(0, 0, 0)",
      "flood-opacity": "1",
      "font-family": "Roboto",
      "font-size": "13px",
      "font-style": "normal",
      "font-synthesis": "style weight",
      "font-variant": "normal",
      "font-variant-alternates": "normal",
      "font-variant-caps": "normal",
      "font-variant-east-asian": "normal",
      "font-variant-ligatures": "normal",
      "font-variant-numeric": "normal",
      "font-variant-position": "normal",
      "font-weight": "300",
      "glyph-orientation-horizontal": "0deg",
      "glyph-orientation-vertical": "auto",
      "height": "804px",
      "image-rendering": "auto",
      "justify-content": "start",
      "justify-items": "start",
      "justify-self": "start",
      "kerning": "0",
      "left": "auto",
      "letter-spacing": "normal",
      "lighting-color": "rgb(255, 255, 255)",
      "line-height": "19px",
      "list-style-image": "none",
      "list-style-position": "outside",
      "list-style-type": "disc",
      "margin-bottom": "0px",
      "margin-left": "0px",
      "margin-right": "0px",
      "margin-top": "0px",
      "marker-end": "none",
      "marker-mid": "none",
      "marker-start": "none",
      "mask": "none",
      "mask-type": "luminance",
      "max-height": "none",
      "max-width": "none",
      "min-height": "100%",
      "min-width": "0px",
      "opacity": "1",
      "order": "0",
      "orphans": "auto",
      "outline-color": "rgb(0, 0, 0)",
      "outline-offset": "0px",
      "outline-style": "none",
      "outline-width": "0px",
      "overflow-wrap": "normal",
      "overflow-x": "visible",
      "overflow-y": "visible",
      "padding-bottom": "0px",
      "padding-left": "0px",
      "padding-right": "0px",
      "padding-top": "0px",
      "page-break-after": "auto",
      "page-break-before": "auto",
      "page-break-inside": "auto",
      "paint-order": "normal",
      "perspective": "none",
      "perspective-origin": "800px 402px",
      "pointer-events": "auto",
      "position": "relative",
      "r": "0px",
      "resize": "none",
      "right": "auto",
      "rx": "0px",
      "ry": "0px",
      "shape-rendering": "auto",
      "speak": "normal",
      "stop-color": "rgb(0, 0, 0)",
      "stop-opacity": "1",
      "stroke": "none",
      "stroke-dasharray": "none",
      "stroke-dashoffset": "0px",
      "stroke-linecap": "butt",
      "stroke-linejoin": "miter",
      "stroke-miterlimit": "4",
      "stroke-opacity": "1",
      "stroke-width": "1px",
      "tab-size": "8",
      "table-layout": "auto",
      "text-align": "start",
      "text-anchor": "start",
      "text-decoration": "none",
      "text-indent": "0px",
      "text-overflow": "clip",
      "text-rendering": "auto",
      "text-shadow": "none",
      "text-transform": "none",
      "top": "auto",
      "transform": "none",
      "transform-origin": "800px 402px",
      "transform-style": "flat",
      "transition-delay": "0s",
      "transition-duration": "0s",
      "transition-property": "all",
      "transition-timing-function": "ease",
      "unicode-bidi": "normal",
      "vector-effect": "none",
      "vertical-align": "baseline",
      "visibility": "visible",
      "white-space": "normal",
      "widows": "auto",
      "width": "1600px",
      "word-break": "normal",
      "word-spacing": "0px",
      "word-wrap": "normal",
      "writing-mode": "lr-tb",
      "x": "0px",
      "y": "0px",
      "z-index": "auto",
      "zoom": "1"
    },
    "scroll": {
      "left": 0,
      "top": 0
    }
  },
  "descriptions": [
    "User login page"
  ],
  "images": [
    {
      "bound": {
        "height": 30,
        "left": 706.34375,
        "top": 428,
        "width": 30
      },
      "computed": {
        "background-color": "rgba(0, 0, 0, 0)",
        "border-bottom-color": "rgb(255, 255, 255)",
        "border-left-color": "rgb(255, 255, 255)",
        "border-right-color": "rgb(255, 255, 255)",
        "border-top-color": "rgb(255, 255, 255)",
        "color": "rgb(255, 255, 255)",
        "column-rule-color": "rgb(255, 255, 255)",
        "display": "inline",
        "font-size": "14px",
        "font-weight": "500",
        "line-height": "14px",
        "min-height": "0px",
        "outline-color": "rgb(255, 255, 255)",
        "perspective-origin": "15px 15px",
        "position": "static",
        "text-align": "center",
        "transform-origin": "15px 15px",
        "vertical-align": "middle"
      },
      "element": {
        "classes": [],
        "id": "",
        "name": "img"
      },
      "path": [
        "div",
        "div",
        "div",
        "div",
        "div",
        "div",
        "div",
        "div",
        "div",
        "form",
        "div",
        "a",
        "span",
        "img"
      ],
      "selector": [
        {
          "classes": [
            "main-container"
          ],
          "id": "",
          "name": "div"
        },
        {
          "classes": [
            "main-content"
          ],
          "id": "",
          "name": "div"
        },
        {
          "classes": [
            "row"
          ],
          "id": "",
          "name": "div"
        },
        {
          "classes": [
            "col-sm-10",
            "col-sm-offset-1"
          ],
          "id": "",
          "name": "div"
        },
        {
          "classes": [
            "login-container"
          ],
          "id": "",
          "name": "div"
        },
        {
          "classes": [
            "position-relative"
          ],
          "id": "",
          "name": "div"
        },
        {
          "classes": [
            "login-box",
            "no-border",
            "visible",
            "widget-box"
          ],
          "id": "login-box",
          "name": "div"
        },
        {
          "classes": [
            "widget-body"
          ],
          "id": "",
          "name": "div"
        },
        {
          "classes": [
            "widget-main"
          ],
          "id": "",
          "name": "div"
        },
        {
          "classes": [],
          "id": "",
          "name": "form"
        },
        {
          "classes": [
            "center",
            "social-login"
          ],
          "id": "",
          "name": "div"
        },
        {
          "classes": [
            "social__button"
          ],
          "id": "",
          "name": "a"
        },
        {
          "classes": [
            "icon__button"
          ],
          "id": "",
          "name": "span"
        },
        {
          "classes": [],
          "id": "",
          "name": "img"
        }
      ],
      "src": "https://asset.kompas.com/data/2017/widget/images/icon-myvalue.png"
    },
    {
      "bound": {
        "height": 37,
        "left": 622.5,
        "top": 729,
        "width": 162.5
      },
      "computed": {
        "background-color": "rgba(0, 0, 0, 0)",
        "border-bottom-color": "rgb(51, 122, 183)",
        "border-left-color": "rgb(51, 122, 183)",
        "border-right-color": "rgb(51, 122, 183)",
        "border-top-color": "rgb(51, 122, 183)",
        "color": "rgb(51, 122, 183)",
        "column-rule-color": "rgb(51, 122, 183)",
        "display": "inline",
        "min-height": "0px",
        "outline-color": "rgb(51, 122, 183)",
        "perspective-origin": "81.25px 18.5px",
        "position": "static",
        "text-align": "center",
        "transform-origin": "81.25px 18.5px",
        "vertical-align": "bottom"
      },
      "element": {
        "classes": [],
        "id": "",
        "name": "img"
      },
      "path": [
        "div",
        "div",
        "div",
        "div",
        "div",
        "div",
        "a",
        "img"
      ],
      "selector": [
        {
          "classes": [
            "main-container"
          ],
          "id": "",
          "name": "div"
        },
        {
          "classes": [
            "main-content"
          ],
          "id": "",
          "name": "div"
        },
        {
          "classes": [
            "row"
          ],
          "id": "",
          "name": "div"
        },
        {
          "classes": [
            "logo-services"
          ],
          "id": "logo-services",
          "name": "div"
        },
        {
          "classes": [
            "logo-wrapper"
          ],
          "id": "",
          "name": "div"
        },
        {
          "classes": [
            "logo-wrap"
          ],
          "id": "",
          "name": "div"
        },
        {
          "classes": [],
          "id": "",
          "name": "a"
        },
        {
          "classes": [],
          "id": "",
          "name": "img"
        }
      ],
      "src": "https://asset.kompas.com/data/2017/widget/images/logo-kompascom.png"
    },
    {
      "bound": {
        "height": 41,
        "left": 815,
        "top": 729,
        "width": 162.5
      },
      "computed": {
        "background-color": "rgba(0, 0, 0, 0)",
        "border-bottom-color": "rgb(51, 122, 183)",
        "border-left-color": "rgb(51, 122, 183)",
        "border-right-color": "rgb(51, 122, 183)",
        "border-top-color": "rgb(51, 122, 183)",
        "color": "rgb(51, 122, 183)",
        "column-rule-color": "rgb(51, 122, 183)",
        "display": "inline",
        "min-height": "0px",
        "outline-color": "rgb(51, 122, 183)",
        "perspective-origin": "81.25px 20.5px",
        "position": "static",
        "text-align": "center",
        "transform-origin": "81.25px 20.5px",
        "vertical-align": "bottom"
      },
      "element": {
        "classes": [],
        "id": "",
        "name": "img"
      },
      "path": [
        "div",
        "div",
        "div",
        "div",
        "div",
        "div",
        "a",
        "img"
      ],
      "selector": [
        {
          "classes": [
            "main-container"
          ],
          "id": "",
          "name": "div"
        },
        {
          "classes": [
            "main-content"
          ],
          "id": "",
          "name": "div"
        },
        {
          "classes": [
            "row"
          ],
          "id": "",
          "name": "div"
        },
        {
          "classes": [
            "logo-services"
          ],
          "id": "logo-services",
          "name": "div"
        },
        {
          "classes": [
            "logo-wrapper"
          ],
          "id": "",
          "name": "div"
        },
        {
          "classes": [
            "logo-wrap"
          ],
          "id": "",
          "name": "div"
        },
        {
          "classes": [],
          "id": "",
          "name": "a"
        },
        {
          "classes": [],
          "id": "",
          "name": "img"
        }
      ],
      "src": "https://asset.kompas.com/data/2017/widget/images/logo-kompasiana.png"
    }
  ],
  "links": [
    "https://auth.myvalue.id/authorize/?client_id=KompasCom&redirect_uri=https://sso.kompas.com/signin_myvalue&state=a29tcGFz%20aHR0cDovL21vbmV5LmtvbXBhcy5jb20vd2hhdHNuZXc=",
    "http://sso.kompas.com/forgot-password",
    "http://sso.kompas.com/register/a29tcGFz",
    "https://www.kompas.com/",
    "https://www.kompasiana.com/"
  ],
  "texts": [
    {
      "bound": {
        "height": 33,
        "left": 648.46875,
        "top": 118,
        "width": 303
      },
      "computed": {
        "background-color": "rgba(0, 0, 0, 0)",
        "border-bottom-color": "rgba(0, 0, 0, 0)",
        "border-bottom-style": "solid",
        "border-bottom-width": "1px",
        "font-size": "24px",
        "line-height": "28px",
        "margin-bottom": "16px",
        "margin-top": "18px",
        "min-height": "0px",
        "padding-bottom": "4px",
        "perspective-origin": "151.5px 16.5px",
        "position": "static",
        "text-transform": "uppercase",
        "transform-origin": "151.5px 16.5px"
      },
      "element": {
        "classes": [
          "bigger",
          "blue",
          "header",
          "lighter"
        ],
        "id": "",
        "name": "h4"
      },
      "html": "\n\t\t\t\t\tLogin\n\t\t\t\t",
      "path": [
        "div",
        "div",
        "div",
        "div",
        "div",
        "div",
        "div",
        "div",
        "div",
        "h4"
      ],
      "selector": [
        {
          "classes": [
            "main-container"
          ],
          "id": "",
          "name": "div"
        },
        {
          "classes": [
            "main-content"
          ],
          "id": "",
          "name": "div"
        },
        {
          "classes": [
            "row"
          ],
          "id": "",
          "name": "div"
        },
        {
          "classes": [
            "col-sm-10",
            "col-sm-offset-1"
          ],
          "id": "",
          "name": "div"
        },
        {
          "classes": [
            "login-container"
          ],
          "id": "",
          "name": "div"
        },
        {
          "classes": [
            "position-relative"
          ],
          "id": "",
          "name": "div"
        },
        {
          "classes": [
            "login-box",
            "no-border",
            "visible",
            "widget-box"
          ],
          "id": "login-box",
          "name": "div"
        },
        {
          "classes": [
            "widget-body"
          ],
          "id": "",
          "name": "div"
        },
        {
          "classes": [
            "widget-main"
          ],
          "id": "",
          "name": "div"
        },
        {
          "classes": [
            "bigger",
            "blue",
            "header",
            "lighter"
          ],
          "id": "",
          "name": "h4"
        }
      ],
      "text": [
        "\n\t\t\t\t\tLogin\n\t\t\t\t"
      ],
      "label": 0
    },
    {
      "bound": {
        "height": 35,
        "left": 648.46875,
        "top": 307,
        "width": 106.046875
      },
      "computed": {
        "align-items": "flex-start",
        "background-color": "rgb(57, 166, 221)",
        "border-bottom-color": "rgb(62, 168, 222)",
        "border-bottom-style": "solid",
        "border-bottom-width": "4px",
        "border-left-color": "rgb(62, 168, 222)",
        "border-left-style": "solid",
        "border-left-width": "4px",
        "border-right-color": "rgb(62, 168, 222)",
        "border-right-style": "solid",
        "border-right-width": "4px",
        "border-top-color": "rgb(62, 168, 222)",
        "border-top-style": "solid",
        "border-top-width": "4px",
        "color": "rgb(255, 255, 255)",
        "column-rule-color": "rgb(255, 255, 255)",
        "cursor": "pointer",
        "display": "inline-block",
        "font-weight": "normal",
        "line-height": "17px",
        "min-height": "0px",
        "outline-color": "rgb(255, 255, 255)",
        "padding-bottom": "4px",
        "padding-left": "9px",
        "padding-right": "9px",
        "padding-top": "4px",
        "perspective-origin": "53.015625px 17.5px",
        "text-align": "center",
        "text-shadow": "rgba(0, 0, 0, 0.247059) 0px -1px 0px",
        "transform-origin": "53.015625px 17.5px",
        "transition-delay": "0s, 0s, 0s",
        "transition-duration": "0.15s, 0.15s, 0.15s",
        "transition-property": "background-color, border-color, opacity",
        "transition-timing-function": "ease, ease, ease",
        "vertical-align": "middle",
        "white-space": "nowrap"
      },
      "element": {
        "classes": [
          "btn",
          "btn-primary",
          "btn-sm",
          "width-35"
        ],
        "id": "",
        "name": "button"
      },
      "html": "\n\t\t\t\t\t\t\t\t<span class=\"bigger-110\">Login</span>\n\t\t\t\t\t\t\t",
      "path": [
        "div",
        "div",
        "div",
        "div",
        "div",
        "div",
        "div",
        "div",
        "div",
        "form",
        "fieldset",
        "div",
        "button"
      ],
      "selector": [
        {
          "classes": [
            "main-container"
          ],
          "id": "",
          "name": "div"
        },
        {
          "classes": [
            "main-content"
          ],
          "id": "",
          "name": "div"
        },
        {
          "classes": [
            "row"
          ],
          "id": "",
          "name": "div"
        },
        {
          "classes": [
            "col-sm-10",
            "col-sm-offset-1"
          ],
          "id": "",
          "name": "div"
        },
        {
          "classes": [
            "login-container"
          ],
          "id": "",
          "name": "div"
        },
        {
          "classes": [
            "position-relative"
          ],
          "id": "",
          "name": "div"
        },
        {
          "classes": [
            "login-box",
            "no-border",
            "visible",
            "widget-box"
          ],
          "id": "login-box",
          "name": "div"
        },
        {
          "classes": [
            "widget-body"
          ],
          "id": "",
          "name": "div"
        },
        {
          "classes": [
            "widget-main"
          ],
          "id": "",
          "name": "div"
        },
        {
          "classes": [],
          "id": "",
          "name": "form"
        },
        {
          "classes": [],
          "id": "",
          "name": "fieldset"
        },
        {
          "classes": [
            "clearfix"
          ],
          "id": "",
          "name": "div"
        },
        {
          "classes": [
            "btn",
            "btn-primary",
            "btn-sm",
            "width-35"
          ],
          "id": "",
          "name": "button"
        }
      ],
      "text": [
        "Login"
      ],
      "label": 0
    },
    {
      "bound": {
        "height": 20,
        "left": 862.859375,
        "top": 307,
        "width": 88.609375
      },
      "computed": {
        "background-color": "rgba(0, 0, 0, 0)",
        "cursor": "pointer",
        "display": "inline-block",
        "font-size": "14px",
        "line-height": "20px",
        "min-height": "18px",
        "min-width": "18px",
        "perspective-origin": "44.296875px 10px",
        "transform-origin": "44.296875px 10px"
      },
      "element": {
        "classes": [
          "lbl"
        ],
        "id": "",
        "name": "span"
      },
      "html": " Tetap login",
      "path": [
        "div",
        "div",
        "div",
        "div",
        "div",
        "div",
        "div",
        "div",
        "div",
        "form",
        "fieldset",
        "div",
        "label",
        "span"
      ],
      "selector": [
        {
          "classes": [
            "main-container"
          ],
          "id": "",
          "name": "div"
        },
        {
          "classes": [
            "main-content"
          ],
          "id": "",
          "name": "div"
        },
        {
          "classes": [
            "row"
          ],
          "id": "",
          "name": "div"
        },
        {
          "classes": [
            "col-sm-10",
            "col-sm-offset-1"
          ],
          "id": "",
          "name": "div"
        },
        {
          "classes": [
            "login-container"
          ],
          "id": "",
          "name": "div"
        },
        {
          "classes": [
            "position-relative"
          ],
          "id": "",
          "name": "div"
        },
        {
          "classes": [
            "login-box",
            "no-border",
            "visible",
            "widget-box"
          ],
          "id": "login-box",
          "name": "div"
        },
        {
          "classes": [
            "widget-body"
          ],
          "id": "",
          "name": "div"
        },
        {
          "classes": [
            "widget-main"
          ],
          "id": "",
          "name": "div"
        },
        {
          "classes": [],
          "id": "",
          "name": "form"
        },
        {
          "classes": [],
          "id": "",
          "name": "fieldset"
        },
        {
          "classes": [
            "clearfix"
          ],
          "id": "",
          "name": "div"
        },
        {
          "classes": [
            "inline",
            "pull-right"
          ],
          "id": "",
          "name": "label"
        },
        {
          "classes": [
            "lbl"
          ],
          "id": "",
          "name": "span"
        }
      ],
      "text": [
        " Tetap login"
      ],
      "label": 0
    },
    {
      "bound": {
        "height": 21,
        "left": 778.390625,
        "top": 368,
        "width": 43.140625
      },
      "computed": {
        "background-color": "rgb(247, 247, 247)",
        "border-bottom-color": "rgb(88, 88, 88)",
        "border-left-color": "rgb(88, 88, 88)",
        "border-right-color": "rgb(88, 88, 88)",
        "border-top-color": "rgb(88, 88, 88)",
        "color": "rgb(88, 88, 88)",
        "column-rule-color": "rgb(88, 88, 88)",
        "display": "inline-block",
        "font-size": "14px",
        "line-height": "21px",
        "min-height": "0px",
        "outline-color": "rgb(88, 88, 88)",
        "padding-left": "8px",
        "padding-right": "8px",
        "perspective-origin": "21.5625px 10.5px",
        "position": "static",
        "text-align": "center",
        "transform-origin": "21.5625px 10.5px"
      },
      "element": {
        "classes": [
          "bigger-110"
        ],
        "id": "",
        "name": "span"
      },
      "html": "atau",
      "path": [
        "div",
        "div",
        "div",
        "div",
        "div",
        "div",
        "div",
        "div",
        "div",
        "form",
        "div",
        "span"
      ],
      "selector": [
        {
          "classes": [
            "main-container"
          ],
          "id": "",
          "name": "div"
        },
        {
          "classes": [
            "main-content"
          ],
          "id": "",
          "name": "div"
        },
        {
          "classes": [
            "row"
          ],
          "id": "",
          "name": "div"
        },
        {
          "classes": [
            "col-sm-10",
            "col-sm-offset-1"
          ],
          "id": "",
          "name": "div"
        },
        {
          "classes": [
            "login-container"
          ],
          "id": "",
          "name": "div"
        },
        {
          "classes": [
            "position-relative"
          ],
          "id": "",
          "name": "div"
        },
        {
          "classes": [
            "login-box",
            "no-border",
            "visible",
            "widget-box"
          ],
          "id": "login-box",
          "name": "div"
        },
        {
          "classes": [
            "widget-body"
          ],
          "id": "",
          "name": "div"
        },
        {
          "classes": [
            "widget-main"
          ],
          "id": "",
          "name": "div"
        },
        {
          "classes": [],
          "id": "",
          "name": "form"
        },
        {
          "classes": [
            "center",
            "social-or-login"
          ],
          "id": "",
          "name": "div"
        },
        {
          "classes": [
            "bigger-110"
          ],
          "id": "",
          "name": "span"
        }
      ],
      "text": [
        "atau"
      ],
      "label": 0
    },
    {
      "bound": {
        "height": 45,
        "left": 648.46875,
        "top": 422,
        "width": 303
      },
      "computed": {
        "background-color": "rgb(218, 24, 132)",
        "border-bottom-color": "rgb(255, 255, 255)",
        "border-bottom-left-radius": "5px",
        "border-bottom-right-radius": "5px",
        "border-left-color": "rgb(255, 255, 255)",
        "border-right-color": "rgb(255, 255, 255)",
        "border-top-color": "rgb(255, 255, 255)",
        "border-top-left-radius": "5px",
        "border-top-right-radius": "5px",
        "color": "rgb(255, 255, 255)",
        "column-rule-color": "rgb(255, 255, 255)",
        "font-size": "14px",
        "font-weight": "500",
        "line-height": "14px",
        "margin-bottom": "10px",
        "margin-top": "10px",
        "min-height": "0px",
        "outline-color": "rgb(255, 255, 255)",
        "padding-bottom": "6px",
        "padding-top": "6px",
        "perspective-origin": "151.5px 22.5px",
        "position": "static",
        "text-align": "center",
        "transform-origin": "151.5px 22.5px",
        "transition-duration": "0.2s"
      },
      "element": {
        "classes": [
          "social__button"
        ],
        "id": "",
        "name": "a"
      },
      "html": "\n                        <span class=\"icon__button -myvalue\"><img src=\"https://asset.kompas.com/data/2017/widget/images/icon-myvalue.png\" alt=\"\"></span> Masuk dengan MyValue\n                    ",
      "path": [
        "div",
        "div",
        "div",
        "div",
        "div",
        "div",
        "div",
        "div",
        "div",
        "form",
        "div",
        "a"
      ],
      "selector": [
        {
          "classes": [
            "main-container"
          ],
          "id": "",
          "name": "div"
        },
        {
          "classes": [
            "main-content"
          ],
          "id": "",
          "name": "div"
        },
        {
          "classes": [
            "row"
          ],
          "id": "",
          "name": "div"
        },
        {
          "classes": [
            "col-sm-10",
            "col-sm-offset-1"
          ],
          "id": "",
          "name": "div"
        },
        {
          "classes": [
            "login-container"
          ],
          "id": "",
          "name": "div"
        },
        {
          "classes": [
            "position-relative"
          ],
          "id": "",
          "name": "div"
        },
        {
          "classes": [
            "login-box",
            "no-border",
            "visible",
            "widget-box"
          ],
          "id": "login-box",
          "name": "div"
        },
        {
          "classes": [
            "widget-body"
          ],
          "id": "",
          "name": "div"
        },
        {
          "classes": [
            "widget-main"
          ],
          "id": "",
          "name": "div"
        },
        {
          "classes": [],
          "id": "",
          "name": "form"
        },
        {
          "classes": [
            "center",
            "social-login"
          ],
          "id": "",
          "name": "div"
        },
        {
          "classes": [
            "social__button"
          ],
          "id": "",
          "name": "a"
        }
      ],
      "text": [
        " Masuk dengan MyValue\n                    "
      ],
      "label": 0
    },
    {
      "bound": {
        "height": 40,
        "left": 649.96875,
        "top": 527,
        "width": 300
      },
      "computed": {
        "background-color": "rgba(0, 0, 0, 0)",
        "border-bottom-color": "rgba(0, 0, 0, 0)",
        "border-bottom-style": "solid",
        "border-bottom-width": "1px",
        "border-left-color": "rgba(0, 0, 0, 0)",
        "border-left-style": "solid",
        "border-left-width": "1px",
        "border-right-color": "rgba(0, 0, 0, 0)",
        "border-right-style": "solid",
        "border-right-width": "1px",
        "border-top-color": "rgba(0, 0, 0, 0)",
        "border-top-style": "solid",
        "border-top-width": "1px",
        "color": "rgb(255, 255, 255)",
        "column-rule-color": "rgb(255, 255, 255)",
        "cursor": "pointer",
        "min-height": "0px",
        "outline-color": "rgb(255, 255, 255)",
        "perspective-origin": "150px 20px",
        "position": "static",
        "text-align": "center",
        "transform-origin": "150px 20px",
        "white-space": "nowrap"
      },
      "element": {
        "classes": [
          "abcRioButtonContentWrapper"
        ],
        "id": "",
        "name": "div"
      },
      "html": "<div class=\"abcRioButtonIcon\" style=\"padding:10px\"><div style=\"width:18px;height:18px;\" class=\"abcRioButtonSvgImageWithFallback abcRioButtonIconImage abcRioButtonIconImage18\"><svg version=\"1.1\" xmlns=\"http://www.w3.org/2000/svg\" width=\"18px\" height=\"18px\" viewBox=\"0 0 48 48\" class=\"abcRioButtonSvg\"><g><path fill=\"#EA4335\" d=\"M24 9.5c3.54 0 6.71 1.22 9.21 3.6l6.85-6.85C35.9 2.38 30.47 0 24 0 14.62 0 6.51 5.38 2.56 13.22l7.98 6.19C12.43 13.72 17.74 9.5 24 9.5z\"></path><path fill=\"#4285F4\" d=\"M46.98 24.55c0-1.57-.15-3.09-.38-4.55H24v9.02h12.94c-.58 2.96-2.26 5.48-4.78 7.18l7.73 6c4.51-4.18 7.09-10.36 7.09-17.65z\"></path><path fill=\"#FBBC05\" d=\"M10.53 28.59c-.48-1.45-.76-2.99-.76-4.59s.27-3.14.76-4.59l-7.98-6.19C.92 16.46 0 20.12 0 24c0 3.88.92 7.54 2.56 10.78l7.97-6.19z\"></path><path fill=\"#34A853\" d=\"M24 48c6.48 0 11.93-2.13 15.89-5.81l-7.73-6c-2.15 1.45-4.92 2.3-8.16 2.3-6.26 0-11.57-4.22-13.47-9.91l-7.98 6.19C6.51 42.62 14.62 48 24 48z\"></path><path fill=\"none\" d=\"M0 0h48v48H0z\"></path></g></svg></div></div><span style=\"font-size:14px;line-height:38px;\" class=\"abcRioButtonContents\"><span id=\"not_signed_inyj3bkbyf60r1\">Sign in with Google</span><span id=\"connectedyj3bkbyf60r1\" style=\"display:none\">Signed in with Google</span></span>",
      "path": [
        "div",
        "div",
        "div",
        "div",
        "div",
        "div",
        "div",
        "div",
        "div",
        "form",
        "div",
        "div",
        "div",
        "div"
      ],
      "selector": [
        {
          "classes": [
            "main-container"
          ],
          "id": "",
          "name": "div"
        },
        {
          "classes": [
            "main-content"
          ],
          "id": "",
          "name": "div"
        },
        {
          "classes": [
            "row"
          ],
          "id": "",
          "name": "div"
        },
        {
          "classes": [
            "col-sm-10",
            "col-sm-offset-1"
          ],
          "id": "",
          "name": "div"
        },
        {
          "classes": [
            "login-container"
          ],
          "id": "",
          "name": "div"
        },
        {
          "classes": [
            "position-relative"
          ],
          "id": "",
          "name": "div"
        },
        {
          "classes": [
            "login-box",
            "no-border",
            "visible",
            "widget-box"
          ],
          "id": "login-box",
          "name": "div"
        },
        {
          "classes": [
            "widget-body"
          ],
          "id": "",
          "name": "div"
        },
        {
          "classes": [
            "widget-main"
          ],
          "id": "",
          "name": "div"
        },
        {
          "classes": [],
          "id": "",
          "name": "form"
        },
        {
          "classes": [
            "center",
            "social-login"
          ],
          "id": "",
          "name": "div"
        },
        {
          "classes": [
            "gpBtn"
          ],
          "id": "gSignIn",
          "name": "div"
        },
        {
          "classes": [
            "abcRioButton",
            "abcRioButtonBlue"
          ],
          "id": "",
          "name": "div"
        },
        {
          "classes": [
            "abcRioButtonContentWrapper"
          ],
          "id": "",
          "name": "div"
        }
      ],
      "text": [
        "Sign in with Google"
      ],
      "label": 0
    },
    {
      "bound": {
        "height": 42,
        "left": 612.46875,
        "top": 603,
        "width": 187.5
      },
      "computed": {
        "background-color": "rgba(0, 0, 0, 0)",
        "float": "left",
        "min-height": "0px",
        "padding-bottom": "11px",
        "padding-top": "9px",
        "perspective-origin": "93.75px 21px",
        "position": "static",
        "text-align": "left",
        "transform-origin": "93.75px 21px"
      },
      "element": {
        "classes": [],
        "id": "",
        "name": "div"
      },
      "html": "\n\t\t\t\t\t<a href=\"http://sso.kompas.com/forgot-password\" class=\"forgot-password-link\">\n\t\t\t\t\t\tLupa password ?\n\t\t\t\t\t</a>\n\t\t\t\t",
      "path": [
        "div",
        "div",
        "div",
        "div",
        "div",
        "div",
        "div",
        "div",
        "div",
        "div"
      ],
      "selector": [
        {
          "classes": [
            "main-container"
          ],
          "id": "",
          "name": "div"
        },
        {
          "classes": [
            "main-content"
          ],
          "id": "",
          "name": "div"
        },
        {
          "classes": [
            "row"
          ],
          "id": "",
          "name": "div"
        },
        {
          "classes": [
            "col-sm-10",
            "col-sm-offset-1"
          ],
          "id": "",
          "name": "div"
        },
        {
          "classes": [
            "login-container"
          ],
          "id": "",
          "name": "div"
        },
        {
          "classes": [
            "position-relative"
          ],
          "id": "",
          "name": "div"
        },
        {
          "classes": [
            "login-box",
            "no-border",
            "visible",
            "widget-box"
          ],
          "id": "login-box",
          "name": "div"
        },
        {
          "classes": [
            "widget-body"
          ],
          "id": "",
          "name": "div"
        },
        {
          "classes": [
            "clearfix",
            "toolbar"
          ],
          "id": "",
          "name": "div"
        },
        {
          "classes": [],
          "id": "",
          "name": "div"
        }
      ],
      "text": [
        "\n\t\t\t\t\t\tLupa password ?\n\t\t\t\t\t"
      ],
      "label": 0
    },
    {
      "bound": {
        "height": 42,
        "left": 799.96875,
        "top": 603,
        "width": 187.5
      },
      "computed": {
        "background-color": "rgba(0, 0, 0, 0)",
        "float": "right",
        "min-height": "0px",
        "padding-bottom": "11px",
        "padding-top": "9px",
        "perspective-origin": "93.75px 21px",
        "position": "static",
        "text-align": "right",
        "transform-origin": "93.75px 21px"
      },
      "element": {
        "classes": [],
        "id": "",
        "name": "div"
      },
      "html": "\n\t\t\t\t\t<a href=\"http://sso.kompas.com/register/a29tcGFz\" class=\"user-signup-link\">\n\t\t\t\t\t\tDaftar\n\t\t\t\t\t</a>\n\t\t\t\t",
      "path": [
        "div",
        "div",
        "div",
        "div",
        "div",
        "div",
        "div",
        "div",
        "div",
        "div"
      ],
      "selector": [
        {
          "classes": [
            "main-container"
          ],
          "id": "",
          "name": "div"
        },
        {
          "classes": [
            "main-content"
          ],
          "id": "",
          "name": "div"
        },
        {
          "classes": [
            "row"
          ],
          "id": "",
          "name": "div"
        },
        {
          "classes": [
            "col-sm-10",
            "col-sm-offset-1"
          ],
          "id": "",
          "name": "div"
        },
        {
          "classes": [
            "login-container"
          ],
          "id": "",
          "name": "div"
        },
        {
          "classes": [
            "position-relative"
          ],
          "id": "",
          "name": "div"
        },
        {
          "classes": [
            "login-box",
            "no-border",
            "visible",
            "widget-box"
          ],
          "id": "login-box",
          "name": "div"
        },
        {
          "classes": [
            "widget-body"
          ],
          "id": "",
          "name": "div"
        },
        {
          "classes": [
            "clearfix",
            "toolbar"
          ],
          "id": "",
          "name": "div"
        },
        {
          "classes": [],
          "id": "",
          "name": "div"
        }
      ],
      "text": [
        "\n\t\t\t\t\t\tDaftar\n\t\t\t\t\t"
      ],
      "label": 0
    },
    {
      "bound": {
        "height": 27,
        "left": 3,
        "top": 670,
        "width": 1594
      },
      "computed": {
        "background-color": "rgba(0, 0, 0, 0)",
        "font-size": "18px",
        "line-height": "27px",
        "margin-bottom": "10px",
        "margin-top": "20px",
        "min-height": "0px",
        "perspective-origin": "797px 13.5px",
        "position": "static",
        "text-align": "-webkit-center",
        "transform-origin": "797px 13.5px"
      },
      "element": {
        "classes": [
          "sso__lead"
        ],
        "id": "",
        "name": "p"
      },
      "html": "\n\t\t\t\t\t\tSatu ID untuk semua layanan Kompas.\n\t\t\t\t\t",
      "path": [
        "div",
        "div",
        "div",
        "p"
      ],
      "selector": [
        {
          "classes": [
            "main-container"
          ],
          "id": "",
          "name": "div"
        },
        {
          "classes": [
            "main-content"
          ],
          "id": "",
          "name": "div"
        },
        {
          "classes": [
            "row"
          ],
          "id": "",
          "name": "div"
        },
        {
          "classes": [
            "sso__lead"
          ],
          "id": "",
          "name": "p"
        }
      ],
      "text": [
        "\n\t\t\t\t\t\tSatu ID untuk semua layanan Kompas.\n\t\t\t\t\t"
      ],
      "label": 0
    }
  ],
  "titles": [
    "Single Sign On - Kompas.com"
  ],
  "url": "https://sso.kompas.com/login/a29tcGFz/aHR0cDovL21vbmV5LmtvbXBhcy5jb20vd2hhdHNuZXc="
}