{
    "nodes": [
        {
            "url": "https://www.iwanbanaran.com/2020/04/14/hot-isu-andrea-iannone-kembali-ke-ducati/",
            "domain": "https://www.iwanbanaran.com/",
            "id": 1
        },
        {
            "url": "https://www.iwanbanaran.com/contact-us/",
            "domain": "https://www.iwanbanaran.com/",
            "id": 2
        },
        {
            "url": "https://www.iwanbanaran.com/category/racing/wsbk/",
            "domain": "https://www.iwanbanaran.com/",
            "id": 3
        },
        {
            "url": "https://www.iwanbanaran.com/category/racing/motogp/",
            "domain": "https://www.iwanbanaran.com/",
            "id": 4
        },
        {
            "url": "https://www.iwanbanaran.com/category/racing/lainnya/",
            "domain": "https://www.iwanbanaran.com/",
            "id": 5
        },
        {
            "url": "https://www.iwanbanaran.com/category/racing/isle-of-man-tt/",
            "domain": "https://www.iwanbanaran.com/",
            "id": 6
        },
        {
            "url": "https://www.iwanbanaran.com/category/racing/balap-nasional/",
            "domain": "https://www.iwanbanaran.com/",
            "id": 7
        },
        {
            "url": "https://www.iwanbanaran.com/category/racing/balap-asia/",
            "domain": "https://www.iwanbanaran.com/",
            "id": 8
        },
        {
            "url": "https://www.iwanbanaran.com/category/gosip-motor/gosip-yamaha/",
            "domain": "https://www.iwanbanaran.com/",
            "id": 9
        },
        {
            "url": "https://www.iwanbanaran.com/category/gosip-motor/gosip-tvs/",
            "domain": "https://www.iwanbanaran.com/",
            "id": 10
        },
        {
            "url": "https://www.iwanbanaran.com/category/gosip-motor/gosip-suzuki/",
            "domain": "https://www.iwanbanaran.com/",
            "id": 11
        },
        {
            "url": "https://www.iwanbanaran.com/category/gosip-motor/gosip-lainnya/",
            "domain": "https://www.iwanbanaran.com/",
            "id": 12
        },
        {
            "url": "https://www.iwanbanaran.com/category/gosip-motor/gosip-ktm/",
            "domain": "https://www.iwanbanaran.com/",
            "id": 13
        },
        {
            "url": "https://www.iwanbanaran.com/category/gosip-motor/gosip-kawasaki/",
            "domain": "https://www.iwanbanaran.com/",
            "id": 14
        },
        {
            "url": "https://www.iwanbanaran.com/category/gosip-motor/gosip-honda/",
            "domain": "https://www.iwanbanaran.com/",
            "id": 15
        },
        {
            "url": "https://www.iwanbanaran.com/category/gosip-motor/gosip-ducati/",
            "domain": "https://www.iwanbanaran.com/",
            "id": 16
        },
        {
            "url": "https://www.iwanbanaran.com/2020/06/13/bebek-klasik-sultan-honda-supercub-c125-2020-resmi-bersolek-kaum-mending-minggir/",
            "domain": "https://www.iwanbanaran.com/",
            "id": 17
        },
        {
            "url": "https://www.iwanbanaran.com/2020/06/18/adu-power-on-wheel-honda-cbr250rr-vs-yamaha-r3-waahhhh-ketatttt/",
            "domain": "https://www.iwanbanaran.com/",
            "id": 18
        },
        {
            "url": "https://www.iwanbanaran.com/2020/06/17/breaking-news-edian-kawasaki-ninja-250-sl-dijual-299-juta-mesin-150cc-terasa-overprice/",
            "domain": "https://www.iwanbanaran.com/",
            "id": 19
        },
        {
            "url": "https://www.iwanbanaran.com/category/racing/wsbk/page/15/",
            "domain": "https://www.iwanbanaran.com/",
            "id": 20
        },
        {
            "url": "https://www.iwanbanaran.com/2020/06/16/honda-new-vario-150-2020-sudah-tebar-pesona-di-jateng-itemnya-asyem-tenan/",
            "domain": "https://www.iwanbanaran.com/",
            "id": 21
        },
        {
            "url": "https://www.iwanbanaran.com/category/racing/lainnya/page/6/",
            "domain": "https://www.iwanbanaran.com/",
            "id": 22
        },
        {
            "url": "https://www.iwanbanaran.com/2016/06/22/rekaman-kecelakaan-balap-isle-of-man-tt-yang-paling-mengerikan/",
            "domain": "https://www.iwanbanaran.com/",
            "id": 23
        },
        {
            "url": "https://www.iwanbanaran.com/category/racing/balap-nasional/page/14/",
            "domain": "https://www.iwanbanaran.com/",
            "id": 24
        },
        {
            "url": "https://www.iwanbanaran.com/category/racing/balap-asia/page/15/",
            "domain": "https://www.iwanbanaran.com/",
            "id": 25
        },
        {
            "url": "https://www.iwanbanaran.com/category/gosip-motor/gosip-yamaha/page/12/",
            "domain": "https://www.iwanbanaran.com/",
            "id": 26
        },
        {
            "url": "https://www.iwanbanaran.com/2015/12/05/spyshot-sosok-sport-misterius-terpantau-di-karawang-apakah-tvs-apache-200/",
            "domain": "https://www.iwanbanaran.com/",
            "id": 27
        },
        {
            "url": "https://www.iwanbanaran.com/category/gosip-motor/gosip-suzuki/page/7/",
            "domain": "https://www.iwanbanaran.com/",
            "id": 28
        },
        {
            "url": "https://www.iwanbanaran.com/2019/06/26/hot-harley-davidson-siap-produksi-motor-kecil-gandeng-cina/",
            "domain": "https://www.iwanbanaran.com/",
            "id": 29
        },
        {
            "url": "https://www.iwanbanaran.com/2017/03/19/ktm-perkenalkan-mesin-2-tak-modern-yang-lolos-euro-4-sejarah-terukir/",
            "domain": "https://www.iwanbanaran.com/",
            "id": 30
        }
    ],
    "links": [
        {
            "source": "https://www.iwanbanaran.com/2020/04/14/hot-isu-andrea-iannone-kembali-ke-ducati/",
            "target": "https://www.iwanbanaran.com/2020/04/14/hot-isu-andrea-iannone-kembali-ke-ducati/",
            "depth": 1
        },
        {
            "source": "https://www.iwanbanaran.com/2020/04/14/hot-isu-andrea-iannone-kembali-ke-ducati/",
            "target": "https://www.iwanbanaran.com/contact-us/",
            "depth": 1
        },
        {
            "source": "https://www.iwanbanaran.com/2020/04/14/hot-isu-andrea-iannone-kembali-ke-ducati/",
            "target": "https://www.iwanbanaran.com/category/racing/wsbk/",
            "depth": 1
        },
        {
            "source": "https://www.iwanbanaran.com/2020/04/14/hot-isu-andrea-iannone-kembali-ke-ducati/",
            "target": "https://www.iwanbanaran.com/category/racing/motogp/",
            "depth": 1
        },
        {
            "source": "https://www.iwanbanaran.com/2020/04/14/hot-isu-andrea-iannone-kembali-ke-ducati/",
            "target": "https://www.iwanbanaran.com/category/racing/lainnya/",
            "depth": 1
        },
        {
            "source": "https://www.iwanbanaran.com/2020/04/14/hot-isu-andrea-iannone-kembali-ke-ducati/",
            "target": "https://www.iwanbanaran.com/category/racing/isle-of-man-tt/",
            "depth": 1
        },
        {
            "source": "https://www.iwanbanaran.com/2020/04/14/hot-isu-andrea-iannone-kembali-ke-ducati/",
            "target": "https://www.iwanbanaran.com/category/racing/balap-nasional/",
            "depth": 1
        },
        {
            "source": "https://www.iwanbanaran.com/2020/04/14/hot-isu-andrea-iannone-kembali-ke-ducati/",
            "target": "https://www.iwanbanaran.com/category/racing/balap-asia/",
            "depth": 1
        },
        {
            "source": "https://www.iwanbanaran.com/2020/04/14/hot-isu-andrea-iannone-kembali-ke-ducati/",
            "target": "https://www.iwanbanaran.com/category/gosip-motor/gosip-yamaha/",
            "depth": 1
        },
        {
            "source": "https://www.iwanbanaran.com/2020/04/14/hot-isu-andrea-iannone-kembali-ke-ducati/",
            "target": "https://www.iwanbanaran.com/category/gosip-motor/gosip-tvs/",
            "depth": 1
        },
        {
            "source": "https://www.iwanbanaran.com/2020/04/14/hot-isu-andrea-iannone-kembali-ke-ducati/",
            "target": "https://www.iwanbanaran.com/category/gosip-motor/gosip-suzuki/",
            "depth": 1
        },
        {
            "source": "https://www.iwanbanaran.com/2020/04/14/hot-isu-andrea-iannone-kembali-ke-ducati/",
            "target": "https://www.iwanbanaran.com/category/gosip-motor/gosip-lainnya/",
            "depth": 1
        },
        {
            "source": "https://www.iwanbanaran.com/2020/04/14/hot-isu-andrea-iannone-kembali-ke-ducati/",
            "target": "https://www.iwanbanaran.com/category/gosip-motor/gosip-ktm/",
            "depth": 1
        },
        {
            "source": "https://www.iwanbanaran.com/2020/04/14/hot-isu-andrea-iannone-kembali-ke-ducati/",
            "target": "https://www.iwanbanaran.com/category/gosip-motor/gosip-kawasaki/",
            "depth": 1
        },
        {
            "source": "https://www.iwanbanaran.com/2020/04/14/hot-isu-andrea-iannone-kembali-ke-ducati/",
            "target": "https://www.iwanbanaran.com/category/gosip-motor/gosip-honda/",
            "depth": 1
        },
        {
            "source": "https://www.iwanbanaran.com/2020/04/14/hot-isu-andrea-iannone-kembali-ke-ducati/",
            "target": "https://www.iwanbanaran.com/category/gosip-motor/gosip-ducati/",
            "depth": 1
        },
        {
            "source": "https://www.iwanbanaran.com/2020/04/14/hot-isu-andrea-iannone-kembali-ke-ducati/",
            "target": "https://www.iwanbanaran.com/2020/06/13/bebek-klasik-sultan-honda-supercub-c125-2020-resmi-bersolek-kaum-mending-minggir/",
            "depth": 1
        },
        {
            "source": "https://www.iwanbanaran.com/2020/04/14/hot-isu-andrea-iannone-kembali-ke-ducati/",
            "target": "https://www.iwanbanaran.com/2020/06/18/adu-power-on-wheel-honda-cbr250rr-vs-yamaha-r3-waahhhh-ketatttt/",
            "depth": 1
        },
        {
            "source": "https://www.iwanbanaran.com/2020/04/14/hot-isu-andrea-iannone-kembali-ke-ducati/",
            "target": "https://www.iwanbanaran.com/2020/06/17/breaking-news-edian-kawasaki-ninja-250-sl-dijual-299-juta-mesin-150cc-terasa-overprice/",
            "depth": 1
        },
        {
            "source": "https://www.iwanbanaran.com/category/racing/wsbk/",
            "target": "https://www.iwanbanaran.com/category/racing/wsbk/page/15/",
            "depth": 2
        },
        {
            "source": "https://www.iwanbanaran.com/category/racing/motogp/",
            "target": "https://www.iwanbanaran.com/2020/06/16/honda-new-vario-150-2020-sudah-tebar-pesona-di-jateng-itemnya-asyem-tenan/",
            "depth": 2
        },
        {
            "source": "https://www.iwanbanaran.com/category/racing/lainnya/",
            "target": "https://www.iwanbanaran.com/category/racing/lainnya/page/6/",
            "depth": 2
        },
        {
            "source": "https://www.iwanbanaran.com/category/racing/isle-of-man-tt/",
            "target": "https://www.iwanbanaran.com/2016/06/22/rekaman-kecelakaan-balap-isle-of-man-tt-yang-paling-mengerikan/",
            "depth": 2
        },
        {
            "source": "https://www.iwanbanaran.com/category/racing/balap-nasional/",
            "target": "https://www.iwanbanaran.com/category/racing/balap-nasional/page/14/",
            "depth": 2
        },
        {
            "source": "https://www.iwanbanaran.com/category/racing/balap-asia/",
            "target": "https://www.iwanbanaran.com/category/racing/balap-asia/page/15/",
            "depth": 2
        },
        {
            "source": "https://www.iwanbanaran.com/category/gosip-motor/gosip-yamaha/",
            "target": "https://www.iwanbanaran.com/category/gosip-motor/gosip-yamaha/page/12/",
            "depth": 2
        },
        {
            "source": "https://www.iwanbanaran.com/category/gosip-motor/gosip-tvs/",
            "target": "https://www.iwanbanaran.com/2015/12/05/spyshot-sosok-sport-misterius-terpantau-di-karawang-apakah-tvs-apache-200/",
            "depth": 2
        },
        {
            "source": "https://www.iwanbanaran.com/category/gosip-motor/gosip-suzuki/",
            "target": "https://www.iwanbanaran.com/category/gosip-motor/gosip-suzuki/page/7/",
            "depth": 2
        },
        {
            "source": "https://www.iwanbanaran.com/category/gosip-motor/gosip-lainnya/",
            "target": "https://www.iwanbanaran.com/2019/06/26/hot-harley-davidson-siap-produksi-motor-kecil-gandeng-cina/",
            "depth": 2
        },
        {
            "source": "https://www.iwanbanaran.com/category/gosip-motor/gosip-ktm/",
            "target": "https://www.iwanbanaran.com/2017/03/19/ktm-perkenalkan-mesin-2-tak-modern-yang-lolos-euro-4-sejarah-terukir/",
            "depth": 2
        }
    ]
}